…
# Examples

Here is a basic example that demonstrates some of the functionality of
the cbbAnalysis package:

## Scraping Matchups

``` r
library(cbbAnalysis)
# Get matchups for December 1, 2024
matchups <- matchupsDate("2024-12-01")
print(matchups)
#> # A tibble: 34 × 6
#>    date       away_team            home_team  away_score home_score boxscore_url
#>    <chr>      <chr>                <chr>           <int>      <int> <chr>       
#>  1 2024-12-01 South Carolina State Xavier             68         71 https://www…
#>  2 2024-12-01 Sacred Heart         Boston Un…         73         65 https://www…
#>  3 2024-12-01 Alcorn State         Maryland           58         96 https://www…
#>  4 2024-12-01 NJIT                 UMass              68         80 https://www…
#>  5 2024-12-01 LIU                  Niagara            52         60 https://www…
#>  6 2024-12-01 Middle Tennessee     UAB                76         69 https://www…
#>  7 2024-12-01 Arkansas-Pine Bluff  Kansas St…         73        120 https://www…
#>  8 2024-12-01 North Florida        Nebraska           72        103 https://www…
#>  9 2024-12-01 Texas State          Texas Sou…         72         59 https://www…
#> 10 2024-12-01 Mercyhurst           San Franc…         59         87 https://www…
#> # ℹ 24 more rows
```
…
